Regression for Microbiome Data:Moving From Diversity to Inference
…
otu_long
```

]

.pull-right[

```
## # A tibble: 431,400 x 3
##    otu_id       specimen_id read_count
##    <chr>        <chr>            <dbl>
##  1 OTU_97.1     700014718            0
##  2 OTU_97.10    700014718            0
##  3 OTU_97.100   700014718            0
##  4 OTU_97.1000  700014718            0
##  5 OTU_97.10000 700014718            0
##  6 OTU_97.10001 700014718            0
##  7 OTU_97.10002 700014718            0
##  8 OTU_97.10003 700014718            0
##  9 OTU_97.10004 700014718            0
## 10 OTU_97.10005 700014718            0
## #  with 431,390 more rows
```
…
specimen_data
```

]

.pull-right[

```
## # A tibble: 361 x 3
##    specimen_id hmpbodysubsite dummy_variable_site
##    <chr>       <chr>                        <dbl>
##  1 700013549   Stool                         4.39
##  2 700014386   Stool                         4.10
##  3 700014445   Anterior_nares               14.6 
##  4 700014488   Stool                         5.27
##  5 700014497   Stool                         4.49
##  6 700014527   Anterior_nares               13.8 
##  7 700014555   Stool                         5.44
##  8 700014718   Stool                         5.00
##  9 700014767   Anterior_nares               13.5 
## 10 700014797   Anterior_nares               14.0 
## #  with 351 more rows
```
…
